<svg xmlns="http://www.w3.org/2000/svg" viewBox="0 0 16 16">
    <defs>
        <style>
            .cls-1 {
                fill: none;
            }

            .cls-2 {
                fill: #d0d5d6;
            }
        </style>
    </defs>
    <g id="No_X_icon_" data-name="No(X icon)" transform="translate(-264 -128)">
        <rect id="Rectangle_1445" data-name="Rectangle 1445" class="cls-1" width="16" height="16" transform="translate(264 128)"/>
        <path id="Union_3" data-name="Union 3" class="cls-2" d="M8,9.454,1.454,16,0,14.545,6.545,8,0,1.454,1.454,0,8,6.545,14.545,0,16,1.454,9.454,8,16,14.545,14.545,16Z" transform="translate(264 128)"/>
    </g>
</svg>
