<svg xmlns="http://www.w3.org/2000/svg" viewBox="0 0 41 41.999">
  <defs>
    <style>
      .cls-1 {
        fill: #00bff1;
      }

      .cls-2 {
        fill: #d0d5d6;
      }
    </style>
  </defs>
  <g id="credit-card" transform="translate(-7.7)">
    <g id="Group_133" data-name="Group 133" transform="translate(7.7 0)">
      <path id="Path_266" data-name="Path 266" class="cls-1" d="M40.383,10.824a.561.561,0,0,0,.234-1.074L18.966.227a2.623,2.623,0,0,0-3.457,1.315L7.929,18.405a2.586,2.586,0,0,0,1.326,3.429l4.367,1.874a.831.831,0,0,0,1.17-.748V15.8A4.99,4.99,0,0,1,19.8,10.833H40.383Z" transform="translate(-7.7 0)"/>
      <path id="Path_267" data-name="Path 267" class="cls-2" d="M145.547,153.136h-26.26a2.641,2.641,0,0,0-2.651,2.63v18.4a2.641,2.641,0,0,0,2.651,2.63h3.526a9.48,9.48,0,0,1-.13-1.573,9.875,9.875,0,0,1,.165-1.762h-2.842v-8.81h24.83v8.8h-2.85a9.876,9.876,0,0,1,.165,1.762,9.476,9.476,0,0,1-.13,1.573h3.526a2.641,2.641,0,0,0,2.651-2.63V155.766A2.641,2.641,0,0,0,145.547,153.136Zm-.71,6.094h-24.83v-2.759h24.83Z" transform="translate(-107.198 -139.974)"/>
      <path id="Path_268" data-name="Path 268" class="cls-1" d="M227.046,331.436a6.756,6.756,0,1,0,6.81,6.756A6.784,6.784,0,0,0,227.046,331.436Zm1.958,9.42a2.157,2.157,0,0,1-1.135.722.315.315,0,0,0-.277.361c.009.2,0,.4,0,.6a.244.244,0,0,1-.269.275q-.325.013-.65,0a.255.255,0,0,1-.277-.292v-.438c0-.318-.017-.335-.329-.387a4.111,4.111,0,0,1-1.152-.327c-.286-.138-.321-.206-.234-.507.061-.223.121-.447.191-.662.078-.258.147-.284.39-.163a3.738,3.738,0,0,0,1.282.378,1.569,1.569,0,0,0,.84-.112.643.643,0,0,0,.156-1.135,1.762,1.762,0,0,0-.477-.275,9.924,9.924,0,0,1-1.308-.584,1.824,1.824,0,0,1-1.048-1.762,1.939,1.939,0,0,1,1.429-1.8c.347-.129.355-.12.355-.481v-.37c.009-.275.052-.318.329-.327h.251c.589,0,.589,0,.589.584,0,.413,0,.413.416.473a3.8,3.8,0,0,1,.91.266.259.259,0,0,1,.173.352c-.069.249-.139.507-.225.748s-.156.266-.381.163a2.878,2.878,0,0,0-1.438-.284,1.157,1.157,0,0,0-.381.077.54.54,0,0,0-.139.963,2.775,2.775,0,0,0,.624.352,9.706,9.706,0,0,1,1.144.516A2.013,2.013,0,0,1,229,340.856Z" transform="translate(-201.822 -302.949)"/>
    </g>
  </g>
</svg>
