<?xml version="1.0" encoding="UTF-8"?>
<svg width="30px" height="30px" viewBox="0 0 30 30" version="1.1" xmlns="http://www.w3.org/2000/svg" xmlns:xlink="http://www.w3.org/1999/xlink">
    <!-- Generator: sketchtool 49.1 (51147) - http://www.bohemiancoding.com/sketch -->
    <title>428B0851-78AE-42D6-A2F4-E459C34005B4</title>
    <desc>Created with sketchtool.</desc>
    <defs></defs>
    <g id="Page-1" stroke="none" stroke-width="1" fill="none" fill-rule="evenodd">
        <g id="profile-page-accordeon" transform="translate(-1241.000000, -3386.000000)">
            <g id="cards" transform="translate(541.000000, 590.000000)">
                <g id="blocked-accord" transform="translate(0.000000, 2766.000000)">
                    <g id="down-arrow" transform="translate(700.000000, 30.000000)">
                        <circle id="Oval-2" fill="#475F66" cx="15" cy="15" r="15"></circle>
                        <path d="M14.9999768,19 C14.7490683,19 14.4981908,18.9039623 14.3068955,18.7122907 L8.28719851,12.6777558 C7.90426716,12.2938845 7.90426716,11.671503 8.28719851,11.287787 C8.66997495,10.904071 9.29070856,10.904071 9.6736709,11.287787 L14.9999768,16.6274773 L20.3263136,11.2879734 C20.709245,10.9042574 21.3299166,10.9042574 21.7126621,11.2879734 C22.0957793,11.6716893 22.0957793,12.2940708 21.7126621,12.6779421 L15.693058,18.712477 C15.5016698,18.9041797 15.2507923,19 14.9999768,19 Z" id="Shape" fill="#FFFFFF" fill-rule="nonzero"></path>
                    </g>
                </g>
            </g>
        </g>
    </g>
</svg>