<svg xmlns="http://www.w3.org/2000/svg" viewBox="0 0 34 34">
  <defs>
    <style>
      .cls-1 {
        fill: #fff;
      }
    </style>
  </defs>
  <g id="twitter_for_Landing" data-name="twitter for Landing" transform="translate(-0.001 0)">
    <path id="Exclusion_1" data-name="Exclusion 1" class="cls-1" d="M789-1277a16.889,16.889,0,0,1-12.021-4.979A16.889,16.889,0,0,1,772-1294a16.889,16.889,0,0,1,4.979-12.021A16.889,16.889,0,0,1,789-1311a16.889,16.889,0,0,1,12.021,4.979A16.889,16.889,0,0,1,806-1294a16.889,16.889,0,0,1-4.979,12.021A16.889,16.889,0,0,1,789-1277Zm-9.393-9.417h0a11.52,11.52,0,0,0,6.228,1.825,11.45,11.45,0,0,0,11.562-11.562c0-.165,0-.337-.012-.526a8.193,8.193,0,0,0,2.028-2.1,8.1,8.1,0,0,1-2.334.639,4.065,4.065,0,0,0,1.786-2.247,8.1,8.1,0,0,1-2.58.985,4.085,4.085,0,0,0-2.966-1.282,4.068,4.068,0,0,0-4.063,4.063,4.1,4.1,0,0,0,.105.926,11.571,11.571,0,0,1-8.375-4.246,4.059,4.059,0,0,0-.551,2.043,4.06,4.06,0,0,0,1.808,3.382,4.053,4.053,0,0,1-1.841-.509v.051a4.074,4.074,0,0,0,3.26,3.984,4.084,4.084,0,0,1-1.071.142,4.126,4.126,0,0,1-.764-.072,4.061,4.061,0,0,0,3.8,2.822,8.1,8.1,0,0,1-5.046,1.74A8.234,8.234,0,0,1,779.609-1286.418Z" transform="translate(-772 1311)"/>
  </g>
</svg>
